{
    "type": "application",
    "source-directories": [
        "src"
    ],
    "elm-version": "0.19.1",
    "dependencies": {
        "direct": {
            "elm/browser": "1.0.2",
            "elm/core": "1.0.5",
            "elm/html": "1.0.0",
            "elm/json": "1.1.3",
            "elm/svg": "1.0.1",
            "elm/url": "1.0.0",
            "fapian/elm-html-aria": "1.4.0",
            "pablohirafuji/elm-markdown": "2.0.5",
            "pablohirafuji/elm-syntax-highlight": "3.5.0",
            "rl-king/elm-scroll-to": "1.1.2"
        },
        "indirect": {
            "elm/parser": "1.1.0",
            "elm/regex": "1.0.0",
            "elm/time": "1.0.0",
            "elm/virtual-dom": "1.0.3",
            "tad-lispy/springs": "1.0.5"
        }
    },
    "test-dependencies": {
        "direct": {},
        "indirect": {}
    }
}
